{
  "uid" : "50715307c706371d",
  "name" : "cate_1商品列表数据正确",
  "fullName" : "testcase.testLogin.TestLogin#test_login",
  "historyId" : "2be3c56c1b5dde8b366ff9dde4920100",
  "time" : {
    "start" : 1598926800928,
    "stop" : 1598926801996,
    "duration" : 1068
  },
  "description" : "<font color='red'>请求URL: </font> /categories/115/skus/<Br/><font color='red'>请求类型: </font>get<Br/><font color='red'>期望结果: </font><Br/><font color='red'>实际结果: </font>{\"count\":14,\"next\":\"http://211.103.136.242:8064/categories/115/skus/?page=2\",\"previous\":null,\"results\":[{\"id\":3,\"name\":\"Apple iPhone 8 Plus (A1864) 64GB 金色 移动联通电信4G手机\",\"price\":\"6499.00\",\"default_image_url\":\"http://172.17.0.139:804/group1/M00/00/02/CtM3BVrRZCqAUxp9AAFti6upbx41220032\",\"comments\":0},{\"id\":4,\"name\":\"Apple iPhone 8 Plus (A1864) 256GB 金色 移动联通电信4G手机\",\"price\":\"7988.00\",\"default_image_url\":\"http://172.17.0.139:804/group1/M00/00/02/CtM3BVrRZa6ANO_sAAFti6upbx40753757\",\"comments\":0}]}",
  "descriptionHtml" : "<p><font color='red'>请求URL: </font> /categories/115/skus/<Br/><font color='red'>请求类型: </font>get<Br/><font color='red'>期望结果: </font><Br/><font color='red'>实际结果: </font>{&quot;count&quot;:14,&quot;next&quot;:&quot;http://211.103.136.242:8064/categories/115/skus/?page=2&quot;,&quot;previous&quot;:null,&quot;results&quot;:[{&quot;id&quot;:3,&quot;name&quot;:&quot;Apple iPhone 8 Plus (A1864) 64GB 金色 移动联通电信4G手机&quot;,&quot;price&quot;:&quot;6499.00&quot;,&quot;default_image_url&quot;:&quot;http://172.17.0.139:804/group1/M00/00/02/CtM3BVrRZCqAUxp9AAFti6upbx41220032&quot;,&quot;comments&quot;:0},{&quot;id&quot;:4,&quot;name&quot;:&quot;Apple iPhone 8 Plus (A1864) 256GB 金色 移动联通电信4G手机&quot;,&quot;price&quot;:&quot;7988.00&quot;,&quot;default_image_url&quot;:&quot;http://172.17.0.139:804/group1/M00/00/02/CtM3BVrRZa6ANO_sAAFti6upbx40753757&quot;,&quot;comments&quot;:0}]}</p>\n",
  "status" : "passed",
  "flaky" : false,
  "newFailed" : false,
  "beforeStages" : [ ],
  "afterStages" : [ ],
  "labels" : [ {
    "name" : "feature",
    "value" : "接口测试"
  }, {
    "name" : "story",
    "value" : "商品列表数据"
  }, {
    "name" : "parentSuite",
    "value" : "testcase"
  }, {
    "name" : "suite",
    "value" : "testLogin"
  }, {
    "name" : "subSuite",
    "value" : "TestLogin"
  }, {
    "name" : "host",
    "value" : "INNOVAT0084"
  }, {
    "name" : "thread",
    "value" : "6092-MainThread"
  }, {
    "name" : "framework",
    "value" : "pytest"
  }, {
    "name" : "language",
    "value" : "cpython3"
  }, {
    "name" : "package",
    "value" : "testcase.testLogin"
  }, {
    "name" : "resultFormat",
    "value" : "allure2"
  } ],
  "parameters" : [ {
    "name" : "data",
    "value" : "{'用例ID': 'cate_1', '模块': '商品列表数据', '接口名称': '商品列表数据正确', '请求URL': '/categories/115/skus/', '前置条件': '', '请求类型': 'get', '请求参数类型': 'json', '请求参数': '{\"page\":\"1\",\\n \"page_size\": \"10\",\\n \"ordering\": \"create_time\"}', '预期结果': '', '实际结果': '', '备注': '', '是否运行': '', 'headers': '{}', 'cookies': '', 'status_code': '200', '数据库验证': ''}"
  } ],
  "links" : [ ],
  "hidden" : false,
  "retry" : false,
  "extra" : {
    "severity" : "normal",
    "retries" : [ {
      "uid" : "cec2a98b274a9bea",
      "status" : "broken",
      "statusDetails" : "TypeError: request() got an unexpected keyword argument 'parmas'",
      "time" : {
        "start" : 1598926359082,
        "stop" : 1598926359920,
        "duration" : 838
      }
    }, {
      "uid" : "ceea181e632f821c",
      "status" : "broken",
      "statusDetails" : "TypeError: request() got an unexpected keyword argument 'parmas'",
      "time" : {
        "start" : 1598926035691,
        "stop" : 1598926036514,
        "duration" : 823
      }
    } ],
    "categories" : [ ],
    "tags" : [ ]
  },
  "source" : "50715307c706371d.json",
  "parameterValues" : [ "{'用例ID': 'cate_1', '模块': '商品列表数据', '接口名称': '商品列表数据正确', '请求URL': '/categories/115/skus/', '前置条件': '', '请求类型': 'get', '请求参数类型': 'json', '请求参数': '{\"page\":\"1\",\\n \"page_size\": \"10\",\\n \"ordering\": \"create_time\"}', '预期结果': '', '实际结果': '', '备注': '', '是否运行': '', 'headers': '{}', 'cookies': '', 'status_code': '200', '数据库验证': ''}" ]
}