{"name": "cate_1商品列表数据正确", "status": "passed", "description": "<font color='red'>请求URL: </font> /categories/115/skus/<Br/><font color='red'>请求类型: </font>get<Br/><font color='red'>期望结果: </font><Br/><font color='red'>实际结果: </font>{\"count\":14,\"next\":\"http://211.103.136.242:8064/categories/115/skus/?page=2\",\"previous\":null,\"results\":[{\"id\":3,\"name\":\"Apple iPhone 8 Plus (A1864) 64GB 金色 移动联通电信4G手机\",\"price\":\"6499.00\",\"default_image_url\":\"http://172.17.0.139:804/group1/M00/00/02/CtM3BVrRZCqAUxp9AAFti6upbx41220032\",\"comments\":0},{\"id\":4,\"name\":\"Apple iPhone 8 Plus (A1864) 256GB 金色 移动联通电信4G手机\",\"price\":\"7988.00\",\"default_image_url\":\"http://172.17.0.139:804/group1/M00/00/02/CtM3BVrRZa6ANO_sAAFti6upbx40753757\",\"comments\":0}]}", "parameters": [{"name": "data", "value": "{'用例ID': 'cate_1', '模块': '商品列表数据', '接口名称': '商品列表数据正确', '请求URL': '/categories/115/skus/', '前置条件': '', '请求类型': 'get', '请求参数类型': 'json', '请求参数': '{\"page\":\"1\",\\n \"page_size\": \"10\",\\n \"ordering\": \"create_time\"}', '预期结果': '', '实际结果': '', '备注': '', '是否运行': '', 'headers': '{}', 'cookies': '', 'status_code': '200', '数据库验证': ''}"}], "start": 1598926800928, "stop": 1598926801996, "uuid": "6e3352bf-cdf5-4606-a624-64b6b7840d5f", "historyId": "2be3c56c1b5dde8b366ff9dde4920100", "testCaseId": "9a22eb6dd1f861c809eb24e8910b9d6a", "fullName": "testcase.testLogin.TestLogin#test_login", "labels": [{"name": "feature", "value": "接口测试"}, {"name": "story", "value": "商品列表数据"}, {"name": "parentSuite", "value": "testcase"}, {"name": "suite", "value": "testLogin"}, {"name": "subSuite", "value": "TestLogin"}, {"name": "host", "value": "INNOVAT0084"}, {"name": "thread", "value": "6092-MainThread"}, {"name": "framework", "value": "pytest"}, {"name": "language", "value": "cpython3"}, {"name": "package", "value": "testcase.testLogin"}]}